<?xml version="1.0" encoding="utf-8"?>
<!-- Generator: Adobe Illustrator 18.1.0, SVG Export Plug-In . SVG Version: 6.00 Build 0)  -->
<!DOCTYPE svg PUBLIC "-//W3C//DTD SVG 1.1//EN" "http://www.w3.org/Graphics/SVG/1.1/DTD/svg11.dtd">
<svg version="1.1" id="Layer_1" xmlns="http://www.w3.org/2000/svg" xmlns:xlink="http://www.w3.org/1999/xlink" x="0px" y="0px"
	 viewBox="0 0 80 80" enable-background="new 0 0 80 80" xml:space="preserve">
<path fill="#F5F5F5" d="M8.5,7.4v65.3c0,3.8,3.1,6.9,6.9,6.9h58.4V14.2H42.8H16.7C16.7,14.2,8.5,14.7,8.5,7.4"/>
<line fill="none" stroke="#205081" stroke-linecap="round" stroke-miterlimit="10" x1="5" y1="24.5" x2="11.9" y2="24.5"/>
<line fill="none" stroke="#205081" stroke-linecap="round" stroke-miterlimit="10" x1="5" y1="34.8" x2="11.9" y2="34.8"/>
<line fill="none" stroke="#205081" stroke-linecap="round" stroke-miterlimit="10" x1="5" y1="45.2" x2="11.9" y2="45.2"/>
<line fill="none" stroke="#205081" stroke-linecap="round" stroke-miterlimit="10" x1="5" y1="55.5" x2="11.9" y2="55.5"/>
<line fill="none" stroke="#205081" stroke-linecap="round" stroke-miterlimit="10" x1="5" y1="65.8" x2="11.9" y2="65.8"/>
<polyline fill="#F6C342" stroke="#205081" stroke-linecap="round" stroke-linejoin="round" stroke-miterlimit="10" points="
	25.6,7.4 25.6,42 34.3,33.3 42.8,41.8 42.8,7.4 "/>
<path fill="none" stroke="#205081" stroke-linecap="round" stroke-miterlimit="10" d="M8.5,7.4v65.3c0,3.8,3.1,6.9,6.9,6.9h58.4
	V14.2H42.8"/>
<line fill="none" stroke="#205081" stroke-linecap="round" stroke-miterlimit="10" x1="15.3" y1="7.4" x2="70.3" y2="7.4"/>
<path fill="none" stroke="#205081" stroke-linecap="round" stroke-miterlimit="10" d="M25.6,14.2H15.3c-3.8,0-6.9-3.1-6.9-6.9
	s3.1-6.9,6.9-6.9h58.4"/>
</svg>
